{
  "hash": "af1d83d3f217a0bdd3f3c8fd111a8cae",
  "result": {
    "markdown": "---\ntitle: \"dqrng v0.4.0\"\nauthor: \"Ralf Stubner\"\ndate: '2024-05-15'\nslug: dqrng-v0-4-0\ncategories:\n  - R\n  - CRAN\n  - package\nbibliography: references.bib\n---\n\n\nToday [dqrng](https://daqana.github.io/dqrng/) version 0.4.0 has been published on CRAN and is now propagating through the mirrors.\nAt the moment we are still working through some breakage with reverse dependencies, but that should clear up soon.\n\nI had already mentioned the  changes in a [previous post](/post/2024-04-23-upcoming-changes-dqrng/).\nThere is one important change, though: I reverted the breaking change concerning the two argument constructor and `seed` function from PCG.\nWhile it is still true that those have [surprising properties](https://github.com/imneme/pcg-cpp/issues/91), this is not really relevant for the current use-case.\nHere it is important that the new method `dqrng::random_64bit_generator::clone(stream)` produces an identical RNG for `clone == 0`, which can be implemented without influencing the two argument constructor and `seed` function.\n\nWhat I like about this release is that different streams of work are coming together quite nicely.\nFor example, [Henrik Sloot](https://github.com/hsloot) implemented to ability to access the global RNG within C++ code.\nIn addition, the abstract base class `random_64bit_generator` now supports methods `variate<dist>(param)`, `generate<dist>(container, param)` etc. using and inspired by [`randutils`](https://www.pcg-random.org/posts/ease-of-use-without-loss-of-power.html).\nThese make it super easy to create new `dqr<dist>` functions if needed, e.g.:\n\n\n::: {.cell}\n\n:::\n\n::: {.cell}\n\n```{.cpp .cell-code}\n#include <Rcpp.h>\n// [[Rcpp::depends(dqrng, BH)]]\n#include <boost/random/gamma_distribution.hpp>\n#include <dqrng.h>\n\n// [[Rcpp::export]]\nRcpp::NumericVector dqrgamma(std::size_t n, double shape, double scale) {\n  auto rng = dqrng::random_64bit_accessor{};\n  auto out = Rcpp::NumericVector(Rcpp::no_init(n));\n  rng.generate<boost::random::gamma_distribution>(out, shape, scale);\n  return out;\n}\n```\n:::\n\n\nSince this new function makes use of the global RNG, it is controlled via the same `dqset.seed()` as normal functions from the package:\n\n\n::: {.cell}\n\n```{.r .cell-code}\ndqset.seed(20240515)\ndqrgamma(5, 2, 10)\n```\n\n::: {.cell-output .cell-output-stdout}\n\n```\n[1] 30.17319 44.74696 12.02194 16.64893 17.34264\n```\n\n\n:::\n\n```{.r .cell-code}\ndqrnorm(5)\n```\n\n::: {.cell-output .cell-output-stdout}\n\n```\n[1]  0.28924215 -0.87322364  0.91917936 -0.83256856  0.01148021\n```\n\n\n:::\n\n```{.r .cell-code}\ndqset.seed(20240515)\ndqrgamma(5, 2, 10)\n```\n\n::: {.cell-output .cell-output-stdout}\n\n```\n[1] 30.17319 44.74696 12.02194 16.64893 17.34264\n```\n\n\n:::\n\n```{.r .cell-code}\ndqrnorm(5)\n```\n\n::: {.cell-output .cell-output-stdout}\n\n```\n[1]  0.28924215 -0.87322364  0.91917936 -0.83256856  0.01148021\n```\n\n\n:::\n:::\n\nIt should not come as a surprise that `boost::random::gamma_distribution()` produces similarly distributed random variates as the function from base R:\n\n\n::: {.cell}\n\n```{.r .cell-code}\nn <- 1e6\nshape <- 2\nscale <- 10\ndata.frame(\n  gamma_R = rgamma(n, shape, scale = scale),\n  gamma_dq = dqrgamma(n, shape, scale)) |> \n  pivot_longer(cols = starts_with(\"gamma\")) |>\n  ggplot(aes(x = value, fill = name)) + geom_histogram(position = \"dodge2\")\n```\n\n::: {.cell-output .cell-output-stderr}\n\n```\n`stat_bin()` using `bins = 30`. Pick better value with `binwidth`.\n```\n\n\n:::\n\n::: {.cell-output-display}\n![](index_files/figure-html/histograms-1.png){width=672}\n:::\n:::\n\nUnfortunately, the Gamma distribution implemented in `boost.random` is not very fast: \n\n\n::: {.cell}\n\n```{.r .cell-code}\nbm <- bench::mark(gamma_R = rgamma(n, shape, scale = scale),\n                  gamma_dq = dqrgamma(n, shape, scale),\n                  check = FALSE)\nknitr::kable(bm[, 1:5])\n```\n\n::: {.cell-output-display}\n\n\n|expression |   min| median|  itr/sec| mem_alloc|\n|:----------|-----:|------:|--------:|---------:|\n|gamma_R    | 133ms|  139ms| 7.162025|    7.63MB|\n|gamma_dq   | 159ms|  171ms| 5.814996|    7.63MB|\n\n\n:::\n:::\n\n\nIt might make sense to implement for example the method from @marsaglia2000.\n\nAlternatively, one can also make use of a feature that I had discussed in [another post](/post/2023-09-24-using-dqrng-as-user-supplied-rng/).\nIt is now possible to register dqrng as user-supplied RNG within R.\nThis way one gets the already fast uniform and normal distribution functions from dqrng together with all the distribution functions available for R.\nThis can make for a very fast combination:\n\n\n::: {.cell}\n\n```{.r .cell-code}\nregister_methods()\nbm <- bench::mark(gamma_R = rgamma(n, shape, scale = scale),\n                  gamma_dq = dqrgamma(n, shape, scale),\n                  check = FALSE)\nknitr::kable(bm[, 1:5])\n```\n\n::: {.cell-output-display}\n\n\n|expression |     min|  median|   itr/sec| mem_alloc|\n|:----------|-------:|-------:|---------:|---------:|\n|gamma_R    |  96.6ms|  97.7ms| 10.209660|    7.63MB|\n|gamma_dq   | 156.8ms| 157.9ms|  6.337992|    7.63MB|\n\n\n:::\n:::\n",
    "supporting": [
      "index_files"
    ],
    "filters": [
      "rmarkdown/pagebreak.lua"
    ],
    "includes": {},
    "engineDependencies": {},
    "preserve": {},
    "postProcess": true
  }
}