{
  "hash": "8dbaa4d493bb1bed20984333a5e6f6bd",
  "result": {
    "markdown": "---\ntitle: \"dqrng v0.4.1\"\nauthor: \"Ralf Stubner\"\ndate: '2024-05-29'\nslug: dqrng-v0-4-1\ncategories:\n  - R\n  - CRAN\n  - package\n---\n\n\nOnly two weeks after [version 0.4.0](/post/2024-05-15-dqrng-v0-4-0) I had to publish version 0.4.1 of [dqrng](https://daqana.github.io/dqrng/) on CRAN.\n\nThe main reason for this was an \"undefined behaviour\" error found on CRAN's UBSAN checks:\n\n```\ndqrng.cpp:222:18: runtime error: signed integer overflow: 4025630150 * 2783094533 cannot be represented in type 'long int'\n```\n\nLooking at the relevant lines the error is quite apparent:\n\n```c\nInt32 unscramble(Int32 u) {\n  for (int j = 0; j < 50; ++j) {\n    u = ((u - 1) * 2783094533);\n  }\n  return u;\n}\n```\n\nWhile `u` is a `Int32`, i.e. `unsigned long int`, the literal integer `2783094533` is interpreted as a *signed* `long int`.\nAs a consequence, the multiplication is done using signed integer logic where overflow is undefined.\nAs a fix, we can simply make sure that the `2783094533` is also interpreted as `unsigned long int`:\n\n```c\nInt32 unscramble(Int32 u) {\n  for (int j = 0; j < 50; ++j) {\n    u = ((u - 1) * 2783094533UL);\n  }\n  return u;\n}\n```\nIn case you are wondering why this code is there in the first place:\nAs discussed on [StackOverflow](https://stackoverflow.com/a/47839021/8416610), R scrambles the user supplied seed using\n\n```c\n/* Initial scrambling */\nfor(j = 0; j < 50; j++)\n  seed = (69069 * seed + 1);\n```\n\nwhich can be undone using the [modular multiplicative inverse](https://en.wikipedia.org/wiki/Modular_multiplicative_inverse) of `69069` for which holds:\n\n\n::: {.cell}\n\n```{.r .cell-code}\n(69069 * 2783094533) %% 2^32\n```\n\n::: {.cell-output .cell-output-stdout}\n\n```\n[1] 1\n```\n\n\n:::\n:::\n\n\nThe purpose of undoing this scrambling is to make the results of `set.seed()` and `dqset.seed()` equivalent if one uses `dqrng` as [user defined RNG](/post/2023-09-24-using-dqrng-as-user-supplied-rng/).\n\nThe second change was triggered by a [bug report](https://github.com/daqana/dqrng/issues/88) from [Sergey Fedorov](https://github.com/barracuda156) from the [MacPorts](https://www.macports.org/) project.\nWhen building `dqrng` on a 32bit PowerPC architecture certain parts of the included PCG code where now used that are not compatible with this architecture.\nFor one of these issues a [fix was possible](https://github.com/imneme/pcg-cpp/pull/92).\nBut in the end I had to disable PCG on MacOS for PowerPC.\nIt will be interesting to see if other architectures are affected by this as well.\nProbably the best way to find out is when the [Debian package](https://packages.debian.org/sid/r-cran-dqrng) is updated.\n\n",
    "supporting": [],
    "filters": [
      "rmarkdown/pagebreak.lua"
    ],
    "includes": {},
    "engineDependencies": {},
    "preserve": {},
    "postProcess": true
  }
}