{
  "hash": "d7922988fd7d7ef4013137aacf2da414",
  "result": {
    "markdown": "---\ntitle: Choosing a new default RNG for dqrng\nauthor: ''\ndate: '2023-09-09'\nslug: choosing-a-new-default-rng-for-dqrng\ncategories:\n  - R\n  - RNG\n  - package\nbibliography: references.bib\n---\n\n\n\n\nCurrently the dqrng package supports only xoroshiro128+ and xoshiro256+ from <https://prng.di.unimi.it/> [see also @blackman2021]. These RNGs should only be used for creating floating point numbers, which was the case for dqrng originally. However, `dqsample` and `dqrrademacher` make use of the full bit pattern. So it would be better to support the `**` and/or `++` variants for both RNGs and make one of them the default. This would be a breaking change, of course. In [#57](https://github.com/daqana/dqrng/pull/57) I have added these additional 4 RNGs to `xoshiro.h` so now is the time to do some benchmarking first by generating some random numbers:\n\n\n::: {.cell}\n\n```{.cpp .cell-code}\n#include <Rcpp.h>\n// [[Rcpp::depends(dqrng, BH)]]\n#include <dqrng_distribution.h>\n#include <xoshiro.h>\n// [[Rcpp::plugins(cpp11)]]\n\ntemplate<typename RNG>\ndouble sum_rng(int n) {\n  auto rng = dqrng::generator<RNG>(42);\n  dqrng::uniform_distribution dist;\n  double result = 0.0;\n  for (int i = 0; i < n; ++i) {\n    result += dist(*rng);\n  }\n  return result;\n}\n\n// [[Rcpp::export]]\ndouble sum_128plus(int n) {\n  return sum_rng<dqrng::xoroshiro128plus>(n);\n}\n// [[Rcpp::export]]\ndouble sum_256plus(int n) {\n  return sum_rng<dqrng::xoshiro256plus>(n);\n}\n// [[Rcpp::export]]\ndouble sum_128starstar(int n) {\n  return sum_rng<dqrng::xoroshiro128starstar>(n);\n}\n// [[Rcpp::export]]\ndouble sum_256starstar(int n) {\n  return sum_rng<dqrng::xoshiro256starstar>(n);\n}\n// [[Rcpp::export]]\ndouble sum_128plusplus(int n) {\n  return sum_rng<dqrng::xoroshiro128plusplus>(n);\n}\n// [[Rcpp::export]]\ndouble sum_256plusplus(int n) {\n  return sum_rng<dqrng::xoshiro256plusplus>(n);\n}\n```\n:::\n\n::: {.cell}\n\n```{.r .cell-code}\nN <- 1e5\nbm <- bench::mark(\n  sum_128plus(N),\n  sum_128starstar(N),\n  sum_128plusplus(N),\n  sum_256plus(N),\n  sum_256starstar(N),\n  sum_256plusplus(N),\n  check = FALSE,\n  min_time = 1\n)\nknitr::kable(bm[, 1:6])\n```\n\n::: {.cell-output-display}\n\n\n|expression         |   min| median|  itr/sec| mem_alloc| gc/sec|\n|:------------------|-----:|------:|--------:|---------:|------:|\n|sum_128plus(N)     | 486µs|  504µs| 1868.621|    2.49KB|      0|\n|sum_128starstar(N) | 486µs|  501µs| 1877.453|    2.49KB|      0|\n|sum_128plusplus(N) | 486µs|  500µs| 1876.092|    2.49KB|      0|\n|sum_256plus(N)     | 487µs|  500µs| 1865.577|    2.49KB|      0|\n|sum_256starstar(N) | 486µs|  503µs| 1851.012|    2.49KB|      0|\n|sum_256plusplus(N) | 486µs|  504µs| 1852.690|    2.49KB|      0|\n\n\n:::\n\n```{.r .cell-code}\nplot(bm)\n```\n\n::: {.cell-output-display}\n![](index_files/figure-html/unnamed-chunk-3-1.png){width=672}\n:::\n:::\n\n\nThe current default xoroshiro128+ is fastest in this comparison with the other generators being very similar. Let's try a more realistic usecase: generating many uniformaly distributed random numbers:\n\n\n::: {.cell}\n\n```{.cpp .cell-code}\n#include <Rcpp.h>\n// [[Rcpp::depends(dqrng, BH)]]\n#include <dqrng_distribution.h>\n#include <xoshiro.h>\n// [[Rcpp::plugins(cpp11)]]\n\ntemplate<typename RNG>\nRcpp::NumericVector runif_rng(int n) {\n  auto rng = dqrng::generator<RNG>(42);\n  dqrng::uniform_distribution dist;\n  Rcpp::NumericVector result(Rcpp::no_init(n));\n  std::generate(result.begin(), result.end(), [rng, dist] () {return dist(*rng);});\n  return result;\n}\n\n// [[Rcpp::export]]\nRcpp::NumericVector runif_128plus(int n) {\n  return runif_rng<dqrng::xoroshiro128plus>(n);\n}\n// [[Rcpp::export]]\nRcpp::NumericVector runif_256plus(int n) {\n  return runif_rng<dqrng::xoshiro256plus>(n);\n}\n// [[Rcpp::export]]\nRcpp::NumericVector runif_128starstar(int n) {\n  return runif_rng<dqrng::xoroshiro128starstar>(n);\n}\n// [[Rcpp::export]]\nRcpp::NumericVector runif_256starstar(int n) {\n  return runif_rng<dqrng::xoshiro256starstar>(n);\n}\n// [[Rcpp::export]]\nRcpp::NumericVector runif_128plusplus(int n) {\n  return runif_rng<dqrng::xoroshiro128plusplus>(n);\n}\n// [[Rcpp::export]]\nRcpp::NumericVector runif_256plusplus(int n) {\n  return runif_rng<dqrng::xoshiro256plusplus>(n);\n}\n```\n:::\n\n::: {.cell}\n\n```{.r .cell-code}\nN <- 1e5\nbm <- bench::mark(\n  runif(N),\n  runif_128plus(N),\n  runif_128starstar(N),\n  runif_128plusplus(N),\n  runif_256plus(N),\n  runif_256starstar(N),\n  runif_256plusplus(N),\n  check = FALSE,\n  min_time = 1\n)\nknitr::kable(bm[, 1:6])\n```\n\n::: {.cell-output-display}\n\n\n|expression           |      min|   median|  itr/sec| mem_alloc|    gc/sec|\n|:--------------------|--------:|--------:|--------:|---------:|---------:|\n|runif(N)             |   2.97ms|   3.51ms|  278.908|     786KB|  4.147331|\n|runif_128plus(N)     |  419.7µs| 777.16µs| 1284.184|     784KB| 22.993440|\n|runif_128starstar(N) | 420.05µs| 777.19µs| 1274.454|     784KB| 21.034679|\n|runif_128plusplus(N) | 419.83µs| 813.89µs| 1125.404|     784KB| 18.206746|\n|runif_256plus(N)     | 489.21µs| 857.94µs| 1086.515|     784KB| 18.089734|\n|runif_256starstar(N) | 489.12µs| 851.94µs| 1168.742|     784KB| 19.178194|\n|runif_256plusplus(N) | 489.42µs|  862.5µs| 1102.899|     784KB| 18.210929|\n\n\n:::\n\n```{.r .cell-code}\nplot(bm)\n```\n\n::: {.cell-output-display}\n![](index_files/figure-html/unnamed-chunk-5-1.png){width=672}\n:::\n:::\n\n\nHere all six generators are very similar, with all of them clearly faster than R's built in `runif`. How about sampling with replacement, which is also mostly governed by the speed of generating random numbers:\n\n\n::: {.cell}\n\n```{.cpp .cell-code}\n#include <Rcpp.h>\n// [[Rcpp::depends(dqrng, BH)]]\n#include <dqrng_sample.h>\n#include <xoshiro.h>\n// [[Rcpp::plugins(cpp11)]]\n\n// [[Rcpp::export]]\nRcpp::IntegerVector sample_128plus(int m, int n) {\n  auto rng = dqrng::generator<dqrng::xoroshiro128plus>(42);\n  return dqrng::sample::sample<Rcpp::IntegerVector, uint32_t>(*rng, uint32_t(m), uint32_t(n), true, 0);\n}\n// [[Rcpp::export]]\nRcpp::IntegerVector sample_128starstar(int m, int n) {\n  auto rng = dqrng::generator<dqrng::xoroshiro128starstar>(42);\n  return dqrng::sample::sample<Rcpp::IntegerVector, uint32_t>(*rng, uint32_t(m), uint32_t(n), true, 0);\n}\n// [[Rcpp::export]]\nRcpp::IntegerVector sample_128plusplus(int m, int n) {\n  auto rng = dqrng::generator<dqrng::xoroshiro128plusplus>(42);\n  return dqrng::sample::sample<Rcpp::IntegerVector, uint32_t>(*rng, uint32_t(m), uint32_t(n), true, 0);\n}\n// [[Rcpp::export]]\nRcpp::IntegerVector sample_256plus(int m, int n) {\n  auto rng = dqrng::generator<dqrng::xoshiro256plus>(42);\n  return dqrng::sample::sample<Rcpp::IntegerVector, uint32_t>(*rng, uint32_t(m), uint32_t(n), true, 0);\n}\n// [[Rcpp::export]]\nRcpp::IntegerVector sample_256starstar(int m, int n) {\n  auto rng = dqrng::generator<dqrng::xoshiro256starstar>(42);\n  return dqrng::sample::sample<Rcpp::IntegerVector, uint32_t>(*rng, uint32_t(m), uint32_t(n), true, 0);\n}\n// [[Rcpp::export]]\nRcpp::IntegerVector sample_256plusplus(int m, int n) {\n  auto rng = dqrng::generator<dqrng::xoshiro256plusplus>(42);\n  return dqrng::sample::sample<Rcpp::IntegerVector, uint32_t>(*rng, uint32_t(m), uint32_t(n), true, 0);\n}\n```\n:::\n\n::: {.cell}\n\n```{.r .cell-code}\nN <- 1e5\nM <- 1e3\nbm <- bench::mark(\n  sample.int(M, N, replace = TRUE),\n  sample_128plus(M, N),\n  sample_128starstar(M, N),\n  sample_128plusplus(M, N),\n  sample_256plus(M, N),\n  sample_256starstar(M, N),\n  sample_256plusplus(M, N),\n  check = FALSE,\n  min_time = 1\n)\nknitr::kable(bm[, 1:6])\n```\n\n::: {.cell-output-display}\n\n\n|expression                       |      min|   median|   itr/sec| mem_alloc|    gc/sec|\n|:--------------------------------|--------:|--------:|---------:|---------:|---------:|\n|sample.int(M, N, replace = TRUE) |   3.25ms|   3.61ms|  269.5642|     401KB|  2.034447|\n|sample_128plus(M, N)             | 408.16µs| 633.07µs| 1532.6744|     393KB| 14.303494|\n|sample_128starstar(M, N)         | 373.28µs| 556.72µs| 1733.5808|     393KB| 14.147238|\n|sample_128plusplus(M, N)         | 424.63µs| 647.42µs| 1516.8105|     393KB| 12.909025|\n|sample_256plus(M, N)             | 391.63µs| 575.64µs| 1686.6577|     393KB| 15.283629|\n|sample_256starstar(M, N)         | 406.82µs| 595.84µs| 1622.1948|     393KB| 12.809865|\n|sample_256plusplus(M, N)         | 372.11µs| 554.85µs| 1760.1333|     393KB| 14.141986|\n\n\n:::\n\n```{.r .cell-code}\nplot(bm)\n```\n\n::: {.cell-output-display}\n![](index_files/figure-html/unnamed-chunk-7-1.png){width=672}\n:::\n:::\n\n\nAgain nothing really conclusive. All six RNGs are similar and much faster than R's build in `sample.int`.\n\nThe speed comparisons between these generators is inconclusive to me. The xoroshiro128 seem to be slightly faster than the xoshiro256 variants. So I am leaning towards one of those as the new default while still making the corresponding xoshiro256 variant available in case a longer period or a higher degree of parallelisation is needed. Comparing the `++` and `**` variants, I am leaning towards `++`, but that is not set in stone.\n\n## References\n",
    "supporting": [
      "index_files"
    ],
    "filters": [
      "rmarkdown/pagebreak.lua"
    ],
    "includes": {},
    "engineDependencies": {},
    "preserve": {},
    "postProcess": true
  }
}