{
  "hash": "37aad8696f88d68bab105b03bc9d53e6",
  "result": {
    "markdown": "---\ntitle: Numerical integration over an infinite interval in Rcpp\nauthor: ''\ndate: '2019-07-03'\nslug: numerical-integration-in-rcpp\naliases:\n    - /post/numerical-integration-over-an-infinite-interval-in-rcpp/\ncategories:\n  - R\n  - Rcpp\n  - Numerics\n  - C++\n---\n\n\nOn Stack Overflow the [question](https://stackoverflow.com/q/56832560/8416610) was asked how to numerically integrate a function over a infinite range in Rcpp, e.g. by using [RcppNumerical](https://github.com/yixuan/RcppNumerical). As an example, the integral\n\n$$\n\\int_{-\\infty}^{\\infty} \\mathrm{d}x \\exp\\left(-\\frac{(x-\\mu)^4}{2}\\right)\n$$\n\nwas given. Using RcppNumerical is straight forward. One defines a class that extends `Numer::Func` for the function and an interface function that calls `Numer::integrate` on it:\n\n\n::: {.cell}\n\n```{.cpp .cell-code}\n// [[Rcpp::depends(RcppEigen)]]\n// [[Rcpp::depends(RcppNumerical)]]\n#include <RcppNumerical.h>\nclass exp4: public Numer::Func {\nprivate:\n    double mean;\npublic:\n    exp4(double mean_) : mean(mean_) {}\n    \n    double operator()(const double& x) const {\n        return exp(-pow(x-mean, 4) / 2);\n    }\n};\n\n// [[Rcpp::export]]\nRcpp::NumericVector integrate_exp4(const double &mean, const double &lower, const double &upper) {\n    exp4 function(mean);\n    double err_est;\n    int err_code;\n    const double result = Numer::integrate(function, lower, upper, err_est, err_code);\n    return Rcpp::NumericVector::create(Rcpp::Named(\"result\") = result,\n                                       Rcpp::Named(\"error\") = err_est);\n}\n```\n:::\n\n\nThis works fine for finite ranges:\n\n\n::: {.cell}\n\n```{.r .cell-code}\nintegrate_exp4(4, 0, 4)\n```\n\n::: {.cell-output .cell-output-stdout}\n\n```\n      result        error \n1.077900e+00 9.252237e-08 \n```\n\n\n:::\n:::\n\n\nHowever, it produces `NA` for infinite ones:\n\n\n::: {.cell}\n\n```{.r .cell-code}\nintegrate_exp4(4, -Inf, Inf)\n```\n\n::: {.cell-output .cell-output-stdout}\n\n```\n      result        error \n2.155801e+00 1.439771e-06 \n```\n\n\n:::\n:::\n\n\nThis is disappointing, since base R's `integrate()` handles this without problems:\n\n\n::: {.cell}\n\n```{.r .cell-code}\nexp4 <- function(x, mean) exp(-(x - mean)^4 / 2)\nintegrate(exp4, 0, 4, mean = 4)\n```\n\n::: {.cell-output .cell-output-stdout}\n\n```\n1.0779 with absolute error < 1.3e-07\n```\n\n\n:::\n\n```{.r .cell-code}\nintegrate(exp4, -Inf, Inf, mean = 4)\n```\n\n::: {.cell-output .cell-output-stdout}\n\n```\n2.155801 with absolute error < 7.9e-06\n```\n\n\n:::\n:::\n\n\nIn this particular case the problem can be easily solved in two different ways. First, the integral can be expressed in terms of the [Gamma function](https://en.wikipedia.org/wiki/Gamma_function#Integration_problems):\n\n$$\n\\int_{-\\infty}^{\\infty} \\mathrm{d}x \\exp\\left(-\\frac{(x-\\mu)^4}{2}\\right) = \n2^{-\\frac{3}{4}} \\Gamma\\left(\\frac{1}{4}\\right)  \\approx 2.155801\n$$\n\nSecond, the integrand is almost zero almost everywhere:\n\n\n::: {.cell}\n::: {.cell-output-display}\n![](index_files/figure-html/integrant_plot-1.png){width=672}\n:::\n:::\n\n\nIt is therefore sufficient to integrate over a small region around `mean` to get a reasonable approximation for the integral over the infinite range:\n\n\n::: {.cell}\n\n```{.r .cell-code}\nintegrate_exp4(4, 1, 7)\n```\n\n::: {.cell-output .cell-output-stdout}\n\n```\n      result        error \n2.155801e+00 9.926448e-13 \n```\n\n\n:::\n:::\n\n\nHowever, the trick to approximate the integral over an infinite range with an integral over a (possibly large) finite range does not work for functions that approach zero more slowly. The help page for `integrate()` has a nice example for this effect:\n\n\n::: {.cell}\n\n```{.r .cell-code}\n## a slowly-convergent integral\nintegrand <- function(x) {1/((x+1)*sqrt(x))}\nintegrate(integrand, lower = 0, upper = Inf)\n```\n\n::: {.cell-output .cell-output-stdout}\n\n```\n3.141593 with absolute error < 2.7e-05\n```\n\n\n:::\n\n```{.r .cell-code}\n## don't do this if you really want the integral from 0 to Inf\nintegrate(integrand, lower = 0, upper = 10)\n```\n\n::: {.cell-output .cell-output-stdout}\n\n```\n2.529038 with absolute error < 3e-04\n```\n\n\n:::\n\n```{.r .cell-code}\nintegrate(integrand, lower = 0, upper = 100000)\n```\n\n::: {.cell-output .cell-output-stdout}\n\n```\n3.135268 with absolute error < 4.2e-07\n```\n\n\n:::\n\n```{.r .cell-code}\nintegrate(integrand, lower = 0, upper = 1000000, stop.on.error = FALSE)\n```\n\n::: {.cell-output .cell-output-stdout}\n\n```\nfailed with message 'the integral is probably divergent'\n```\n\n\n:::\n:::\n\n\nHow does `integrate()` handle the infinite range and can we replicate this in Rcpp? The help page states:\n\n> If one or both limits are infinite, the infinite range is mapped onto a finite interval.\n\nThis is in fact done by a different function from R's C-API: `Rdqagi()` instead of `Rdqags()`. In principle one could call `Rdqagi()` via Rcpp, but this is not straightforward. Fortunately, there are at least two other solutions.\n\nThe [GNU Scientific Library](https://www.gnu.org/software/gsl/) provides a function to [integrate over the infinte interval $(-\\infty, \\infty)$](https://www.gnu.org/software/gsl/doc/html/integration.html#c.gsl_integration_qagi), which can be used via the RcppGSL package:\n\n\n::: {.cell}\n\n```{.cpp .cell-code}\n// [[Rcpp::depends(RcppGSL)]]\n#include <RcppGSL.h>\n#include <gsl/gsl_integration.h>\n\ndouble exp4 (double x, void * params) {\n    double mean = *(double *) params;\n    return exp(-pow(x-mean, 4) / 2);\n}\n\n// [[Rcpp::export]]\nRcpp::NumericVector normalize_exp4_gsl(double &mean) {\n    gsl_integration_workspace *w = gsl_integration_workspace_alloc (1000);\n    \n    double result, error;\n    \n    gsl_function F;\n    F.function = &exp4;\n    F.params = &mean;\n    \n    gsl_integration_qagi(&F, 0, 1e-7, 1000, w, &result, &error);\n    gsl_integration_workspace_free (w);\n    \n    return Rcpp::NumericVector::create(Rcpp::Named(\"result\") = result,\n                                       Rcpp::Named(\"error\") = error);\n}\n```\n:::\n\n::: {.cell}\n\n```{.r .cell-code}\nnormalize_exp4_gsl(4)\n```\n\n::: {.cell-output .cell-output-stdout}\n\n```\n      result        error \n2.155801e+00 3.718126e-08 \n```\n\n\n:::\n:::\n\n\nAlternatively, one can apply the transformation used by GSL (and probably R) also in conjunction with RcppNumerical. To do so, one has to substitute $x = (1-t)/t$ resulting in\n\n$$\n\\int_{-\\infty}^{\\infty} \\mathrm{d}x f(x) = \\int_0^1 \\mathrm{d}t \\frac{f((1-t)/t) + f(-(1-t)/t)}{t^2}\n$$\n\nNow one could write the code for the transformed function directly, but it is of course nicer to have a general solution, i.e. use a class template that can transform *any function* in the desired fashion\n\n\n::: {.cell}\n\n```{.cpp .cell-code}\n// [[Rcpp::depends(RcppEigen)]]\n// [[Rcpp::depends(RcppNumerical)]]\n#include <RcppNumerical.h>\nclass exp4: public Numer::Func {\nprivate:\n    double mean;\npublic:\n    exp4(double mean_) : mean(mean_) {}\n    \n    double operator()(const double& x) const {\n        return exp(-pow(x-mean, 4) / 2);\n    }\n};\n\n// [[Rcpp::plugins(cpp11)]]\ntemplate<class T> class trans_func: public T {\npublic:\n    using T::T;\n    \n    double operator()(const double& t) const {\n        double x = (1-t)/t;\n        return (T::operator()(x) + T::operator()(-x))/pow(t, 2);\n    }\n};\n\n// [[Rcpp::export]]\nRcpp::NumericVector normalize_exp4(const double &mean) {\n    trans_func<exp4> f(mean);\n    double err_est;\n    int err_code;\n    const double result = Numer::integrate(f, 0, 1, err_est, err_code);\n    return Rcpp::NumericVector::create(Rcpp::Named(\"result\") = result,\n                                       Rcpp::Named(\"error\") = err_est);\n}\n```\n:::\n\n::: {.cell}\n\n```{.r .cell-code}\nnormalize_exp4(4)\n```\n\n::: {.cell-output .cell-output-stdout}\n\n```\n      result        error \n2.155801e+00 1.439771e-06 \n```\n\n\n:::\n:::\n\n\nNote that the `exp4` class is identical to the one from the initial example. This means one can use the same class to calculate integrals over a finite range and after transformation over an infinite range.\n",
    "supporting": [
      "index_files"
    ],
    "filters": [
      "rmarkdown/pagebreak.lua"
    ],
    "includes": {},
    "engineDependencies": {},
    "preserve": {},
    "postProcess": true
  }
}